<svg version="1.1" id="Layer_1" xmlns="http://www.w3.org/2000/svg" xmlns:xlink="http://www.w3.org/1999/xlink" x="0px" y="0px"
	 viewBox="0 0 48 46.4" style="enable-background:new 0 0 48 46.4;" xml:space="preserve">
<g>
	<path d="M44.8,8h-12V4.8h1.6c0.5,0,0.8-0.3,0.8-0.8V0.8c0-0.5-0.3-0.8-0.8-0.8H13.6c-0.5,0-0.8,0.3-0.8,0.8V4
		c0,0.5,0.3,0.8,0.8,0.8h1.6V8h-12C1.4,8,0,9.4,0,11.2v12C0,23.7,0.3,24,0.8,24h2.4v21.6c0,0.5,0.3,0.8,0.8,0.8h20.8v-1.6h-20V24H16
		v-1.6H1.6V11.2c0-0.9,0.7-1.6,1.6-1.6h41.6c0.9,0,1.6,0.7,1.6,1.6v11.2h-1.6V24h2.4c0.5,0,0.8-0.3,0.8-0.8v-12
		C48,9.4,46.6,8,44.8,8L44.8,8z M14.4,1.6h19.2v1.6H14.4V1.6z M16.8,8V4.8h14.4V8H16.8z M16.8,8"/>
	<path d="M30.4,25.6v-4.8c0-0.5-0.3-0.8-0.8-0.8H18.4c-0.5,0-0.8,0.3-0.8,0.8v4.8c0,0.5,0.3,0.8,0.8,0.8h11.2
		C30.1,26.4,30.4,26.1,30.4,25.6L30.4,25.6z M28.8,24.8h-9.6v-3.2h9.6V24.8z M28.8,24.8"/>
	<path d="M41.6,29.6h-8c-3.1,0-5.6,2.5-5.6,5.6v11.2h1.6V35.2c0-2.2,1.8-4,4-4h1l2.2,5.9c0.1,0.2,0.4,0.5,0.7,0.5
		c0.3,0,0.6-0.2,0.9-0.5l2.2-5.9h0.9c2.2,0,4,1.8,4,4v11.2h1.6V35.2C47.2,32.1,44.7,29.6,41.6,29.6L41.6,29.6z M37.7,34.6l-1.3-3.4
		H39L37.7,34.6z M37.7,34.6"/>
	<rect x="36.8" y="39.2" width="1.6" height="1.6"/>
	<rect x="36.8" y="42.4" width="1.6" height="1.6"/>
	<path d="M36.8,28.8h1.6c2.2,0,4-1.8,4-4v-2.4c0-2.2-1.8-4-4-4h-1.6c-2.2,0-4,1.8-4,4v2.4C32.8,27,34.6,28.8,36.8,28.8L36.8,28.8z
		 M34.4,22.4c0-1.4,1-2.4,2.4-2.4h1.6c1.4,0,2.4,1,2.4,2.4v2.4c0,1.4-1,2.4-2.4,2.4h-1.6c-1.4,0-2.4-1-2.4-2.4V22.4z M34.4,22.4"/>
	<rect x="32" y="37.6" width="1.6" height="8.8"/>
	<rect x="41.6" y="37.6" width="1.6" height="8.8"/>
</g>
</svg>
